[
    {
        "pk": 1000, 
        "model": "ph_model.Country", 
        "fields": {
            "updated": "2016-01-01T00:00:00.000Z", 
            "name": "Kenya", 
            "created": "2016-01-01T00:00:00.000Z"
        }
    }, 
    {
        "pk": 1000, 
        "model": "ph_model.Region", 
        "fields": {
            "country": 1000, 
            "updated": "2016-01-01T00:00:00.000Z", 
            "name": "Kiisi", 
            "created": "2016-01-01T00:00:00.000Z"
        }
    }, 
    {
        "pk": 1000, 
        "model": "ph_model.Project", 
        "fields": {
            "updated": "2016-01-01T00:00:00.000Z", 
            "name": "PowerHive Balance Sheet", 
            "created": "2016-01-01T00:00:00.000Z"
        }
    }, 
    {
        "pk": 1000, 
        "model": "ph_model.Municipality", 
        "fields": {
            "timeZone": "Africa/Nairobi", 
            "region": 1000, 
            "updated": "2016-01-01T00:00:00.000Z", 
            "name": "Baranen", 
            "created": "2016-01-01T00:00:00.000Z"
        }
    }, 
    {
        "pk": 1000, 
        "model": "ph_model.Grid", 
        "fields": {
            "project": 1000, 
            "updated": "2016-01-01T00:00:00.000Z", 
            "municipality": 1000, 
            "name": "Grid 1", 
            "created": "2016-01-01T00:00:00.000Z"
        }
    }, 
    {
        "pk": 1000, 
        "model": "ph_model.AggregateGrid", 
        "fields": {
            "aggregateDate": "2014-01-02", 
            "energyUsed": 50, 
            "updated": "2016-01-01T00:00:00.000Z", 
            "debits": 50, 
            "totalBalance": 50, 
            "created": "2016-01-01T00:00:00.000Z", 
            "deposits": 50, 
            "customersUsing": 1, 
            "averageTariff": 50, 
            "grid": 1000, 
            "arpu": 50, 
            "whPerUser": 50
        }
    }, 
    {
        "pk": 1000, 
        "model": "ph_model.User", 
        "fields": {
            "phoneNumber": "+10000000013", 
            "updated": "2016-01-01T00:00:00.000Z", 
            "type": "SUPERVISOR", 
            "userInfo": 1000, 
            "created": "2016-01-01T00:00:00.000Z"
        }
    }, 
    {
        "pk": 1000, 
        "model": "auth.User", 
        "fields": {
            "username": "user1000", 
            "is_superuser": 1, 
            "password": "pbkdf2_sha256$12000$mUhftsiMpkMP$oBjK8IgqKCO6kDKUVaro8j59zXSNLzGO45VMZYWfv2Y="
        }
    }, 
    {
        "pk": 1000, 
        "model": "ph_model.Permission", 
        "fields": {
            "itemId": 1000, 
            "updated": "2016-01-01T00:00:00.000Z", 
            "itemType": "GRID", 
            "created": "2016-01-01T00:00:00.000Z", 
            "role": 2, 
            "user": 1000
        }
    }
]