{
    "$schema": "http://json-schema.org/draft-04/schema#",
    "title": "Powerstation config",
    "description": "Powerstation config data reported by queen.",
    "type": "object",
    "properties": {
        "header": {
            "type": "object",
            "properties": {
                "protocolVersion": {
                    "description": "Protocol version",
                    "type": "integer"
                },
                "collectTime": {
                    "description": "usage collect time in UTC",
                    "type": "string"
                },
                "queen": {
                    "description": "queen serial number",
                    "type": "string"
                }
            }
        },
        "data": {
            "type": "object",
            "properties": {
                "config": {
                    "type": "array",
                    "items": [
                        {
                            "type": "object",
                            "properties": {
                                "deviceId": {
                                    "type": "string"
                                },
                                "serialNumber": {
                                    "type": "string"
                                },
                                "commType": {
                                    "type": "string"
                                },
                                "commAddr": {
                                    "type": "string"
                                }
                            },
                            "required": ["deviceId"]
                        }
                    ]
                }
            }
        }
    },
    "required": ["header", "data"]
}