pk,customerId,firstName,lastName,email,phoneNumber,networkProvider,tariff,municipality
1,1111111111,Jason,Jones,,+254737370560,1,1,1
2,2222222222,Steve,Kraft,,+254734883290,1,1,1
3,3333333333,Frank,Wong,,+254722540921,1,1,1
4,4444444444,Chris,Hornor,,+1121212122,1,1,1
5,5555555555,Estifanos,GG,,+254722473431,1,1,1

