[
    {
        "pk": 2, 
        "model": "ph_model.Country", 
        "fields": {
            "updated": "2016-01-01T00:00:00.000Z", 
            "name": "Kenya", 
            "countryCode": "KE", 
            "created": "2016-01-01T00:00:00.000Z", 
            "countryITUCode": "254", 
            "countryIsoCode": "KEN"
        }
    }, 
    {
        "pk": 3, 
        "model": "ph_model.Country", 
        "fields": {
            "updated": "2016-01-01T00:00:00.000Z", 
            "name": "Madagascar", 
            "countryCode": "MG", 
            "created": "2016-01-01T00:00:00.000Z", 
            "countryITUCode": "261", 
            "countryIsoCode": "MDG"
        }
    }, 
    {
        "pk": 4, 
        "model": "ph_model.Country", 
        "fields": {
            "updated": "2016-01-01T00:00:00.000Z", 
            "name": "Phillipines", 
            "countryCode": "PH", 
            "created": "2016-01-01T00:00:00.000Z", 
            "countryITUCode": "63", 
            "countryIsoCode": "PHL"
        }
    }
]