[
    {
        "pk": 1, 
        "model": "ph_model.Country", 
        "fields": {
            "updated": "2016-01-01T00:00:00.000Z", 
            "name": "United States", 
            "countryCode": "US", 
            "created": "2016-01-01T00:00:00.000Z", 
            "countryITUCode": "1", 
            "countryIsoCode": "USA"
        }
    }, 
    {
        "pk": 1, 
        "model": "ph_model.Region", 
        "fields": {
            "country": 1, 
            "updated": "2016-01-01T00:00:00.000Z", 
            "name": "California", 
            "created": "2016-01-01T00:00:00.000Z"
        }
    }, 
    {
        "pk": 1, 
        "model": "ph_model.Municipality", 
        "fields": {
            "timeZone": "America/Los_Angeles", 
            "region": 1, 
            "updated": "2016-01-01T00:00:00.000Z", 
            "name": "Berkeley", 
            "created": "2016-01-01T00:00:00.000Z"
        }
    }, 
    {
        "pk": 1, 
        "model": "ph_model.Project", 
        "fields": {
            "updated": "2016-01-01T00:00:00.000Z", 
            "name": "PowerHive Berkeley", 
            "created": "2016-01-01T00:00:00.000Z"
        }
    }, 
    {
        "fields": {
            "project": "1", 
            "updated": "2016-01-01T00:00:00.000Z", 
            "municipality": "1", 
            "name": "unallocated", 
            "created": "2016-01-01T00:00:00.000Z"
        }, 
        "model": "ph_model.Grid", 
        "pk": "1"
    }, 
    {
        "pk": 1, 
        "model": "ph_model.PowerStation", 
        "fields": {
            "updated": "2016-01-01T00:00:00.000Z", 
            "grid": 1, 
            "name": "P:{unallocated}", 
            "created": "2016-01-01T00:00:00.000Z"
        }
    }, 
    {
        "pk": 1, 
        "model": "auth.User", 
        "fields": {
            "username": "superuser", 
            "is_superuser": true, 
            "password": "pbkdf2_sha256$12000$ds1ZFRa6G5tI$PpobMVPL+fd211daiwuwLzmBmOf1ywVdMCA/8pSLhjQ=", 
            "is_staff": true
        }
    }, 
    {
        "pk": 1, 
        "model": "ph_model.User", 
        "fields": {
            "phoneNumber": "+00000000000", 
            "updated": "2016-01-01T00:00:00.000Z", 
            "type": "SUPERVISOR", 
            "userInfo": 1, 
            "created": "2016-01-01T00:00:00.000Z"
        }
    }, 
    {
        "pk": 1, 
        "model": "ph_model.Company", 
        "fields": {
            "updated": "2016-01-01T00:00:00.000Z", 
            "name": "powerhive", 
            "created": "2016-01-01T00:00:00.000Z"
        }
    }, 
    {
        "pk": 2, 
        "model": "ph_model.Company", 
        "fields": {
            "updated": "2016-01-01T00:00:00.000Z", 
            "name": "scratchoff", 
            "created": "2016-01-01T00:00:00.000Z"
        }
    }
]