[
    {
        "pk": 1, 
        "model": "ph_model.SMSServiceProvider", 
        "fields": {
            "userName": "powerhive_inc", 
            "updated": "2016-01-01T00:00:00.000Z", 
            "apiKey": "5edab5045e130b6105e44341e47e9dc122b5e2e43815da9f86f2d62d399b32e4", 
            "name": "AFRICAS_TALK", 
            "created": "2016-01-01T00:00:00.000Z", 
            "password": "u8WDl04M"
        }
    }, 
    {
        "pk": 1, 
        "model": "ph_model.PowerhiveSMSAccount", 
        "fields": {
            "updated": "2016-01-01T00:00:00.000Z", 
            "smsHost": 1, 
            "shortCode": "22870", 
            "lastInBoundSMSId": 7935234, 
            "created": "2016-01-01T00:00:00.000Z"
        }
    }
]