pk,grid,latitude,longitude,deviceId,number
1,1,-0.57,34.43,1422BBBK0001,1
3,1,-0.57,34.43,1422BBBK0003,2
5,2,-0.819881,34.74368,1422BBBK0005,1
6,2,-0.819881,34.74368,1422BBBK0006,2
7,2,-0.819881,34.74368,1422BBBK0007,3
8,2,-0.819881,34.74368,1422BBBK0008,4
9,2,-0.819881,34.74368,1422BBBK0009,5
10,2,-0.819881,34.74368,1422BBBK0010,6
11,2,-0.819881,34.74368,1422BBBK0011,7
12,3,-0.744806,34.714667,1422BBBK0012,1
13,3,-0.744806,34.714667,1422BBBK0013,2
14,3,-0.744806,34.714667,1422BBBK0014,3
15,3,-0.744806,34.714667,1422BBBK0015,4
16,4,-0.95422,34.69936,1422BBBK0016,1
17,4,-0.95422,34.69936,1422BBBK0017,2
18,4,-0.95422,34.69936,1422BBBK0018,3
19,4,-0.95422,34.69936,1422BBBK0019,4
20,5,37.863343,-122.296609,3914BBBK2007,1
