{
    "header":
        {
            "collectTime": "2014-06-09T23:14:00Z"
        },
    "data":
        {
            "queen": {
                "deviceId": "NONEXISTING",
                "currentFirmwareVersion": "NON_EXISTING_FIRMWARE",
                "latitude": -122,
                "longitude": 37,
                "lanAddress": "127.0.0.1",
                "wanAddress": "44.33.22.11"
            },
            "probes": [
                {
                    "deviceId": "NPROBESERIAL1",
                    "number": 1
                },
                {
                    "deviceId": "NPROBESERIAL2",
                    "number": 2
                }
            ],
            "circuits": [
                {
                    "deviceId": "NPROBESERIAL1:1",
                    "probe": "NPROBESERIAL1",
                    "number": 1
                },
                {
                    "deviceId": "NPROBESERIAL1:2",
                    "probe": "NPROBESERIAL1",
                    "number": 2
                },
                {
                    "deviceId": "NPROBESERIAL2:1",
                    "probe": "NPROBESERIAL2",
                    "number": 3
                },
                {
                    "deviceId": "NPROBESERIAL2:2",
                    "number": 4
                }
            ]

        }
}