{
    "header":
        {
            "collectTime": "2014-06-09T23:14:00Z"
        },
    "data":
        {
            "probes": [
                {
                    "deviceId": "PROBESERIAL1",
                    "commAttempts" : 10200,
                    "commErrors" : 10 
                },
                {
                    "deviceId": "PROBESERIAL2",
                    "commAttempts" : 10200,
                    "commErrors" : 10
                }
            ]
        }
}
