{
    "header": {
        "collectTime": "2014-09-26T23:03:13Z"
    },
    "data": {
        "queen": {
            "rssiAvg": 10,
            "rssiMin": 10,
            "rssiMax": 10,
            "tempAvg": 10,
            "tempMin": 10,
            "tempMax": 10,
            "photoAvg": 10,
            "photoMin": 10,
            "photoMax": 10,
            "commAttempts": 10,
            "commErrors": 5,
            "osUptime": 10,
            "fwUptime": 20,
            "fsFreeStatus": 1,
            "fsFreePct": 35.139582
        }
    }
}