[
    {
        "pk": 301, 
        "model": "ph_model.Country", 
        "fields": {
            "updated": "2016-01-01T00:00:00.000Z", 
            "name": "United States", 
            "created": "2016-01-01T00:00:00.000Z"
        }
    }, 
    {
        "pk": 301, 
        "model": "ph_model.Region", 
        "fields": {
            "country": 301, 
            "updated": "2016-01-01T00:00:00.000Z", 
            "name": "California", 
            "created": "2016-01-01T00:00:00.000Z"
        }
    }, 
    {
        "pk": 301, 
        "model": "ph_model.Project", 
        "fields": {
            "updated": "2016-01-01T00:00:00.000Z", 
            "name": "Engineering", 
            "created": "2016-01-01T00:00:00.000Z"
        }
    }, 
    {
        "pk": 301, 
        "model": "ph_model.Municipality", 
        "fields": {
            "timeZone": "America/Los_Angeles", 
            "region": 301, 
            "updated": "2016-01-01T00:00:00.000Z", 
            "name": "Berkeley", 
            "created": "2016-01-01T00:00:00.000Z"
        }
    }, 
    {
        "pk": 301, 
        "model": "ph_model.Grid", 
        "fields": {
            "project": 301, 
            "updated": "2016-01-01T00:00:00.000Z", 
            "municipality": 301, 
            "name": "Grid 301", 
            "created": "2016-01-01T00:00:00.000Z"
        }
    }, 
    {
        "pk": 301, 
        "model": "ph_model.PowerStation", 
        "fields": {
            "updated": "2016-01-01T00:00:00.000Z", 
            "queen": 301, 
            "grid": 301, 
            "name": "10KW", 
            "created": "2016-01-01T00:00:00.000Z"
        }
    }, 
    {
        "pk": 301, 
        "model": "ph_model.BatteryBank", 
        "fields": {
            "updated": "2016-01-01T00:00:00.000Z", 
            "capacity": 10, 
            "created": "2016-01-01T00:00:00.000Z", 
            "stateOfCharge": 0.05, 
            "deviceId": "BB:Grid 301", 
            "powerstation": 301
        }
    }, 
    {
        "pk": 301, 
        "model": "ph_model.Inverter", 
        "fields": {
            "powerstation": 301, 
            "updated": "2016-01-01T00:00:00.000Z", 
            "type": "PV", 
            "deviceId": "invertor301", 
            "created": "2016-01-01T00:00:00.000Z"
        }
    }, 
    {
        "pk": 301, 
        "model": "ph_model.Queen", 
        "fields": {
            "updated": "2016-01-01T00:00:00.000Z", 
            "created": "2016-01-01T00:00:00.000Z", 
            "number": 1, 
            "longitude": -122.296609, 
            "grid": 301, 
            "deviceId": "Q301", 
            "latitude": 37.863343, 
            "usageInterval": 15
        }
    }, 
    {
        "pk": 301, 
        "model": "ph_model.Probe", 
        "fields": {
            "updated": "2016-01-01T00:00:00.000Z", 
            "queen": 301, 
            "created": "2016-01-01T00:00:00.000Z", 
            "number": 1, 
            "deviceId": "Q301P301"
        }
    }, 
    {
        "pk": 301, 
        "model": "ph_model.Circuit", 
        "fields": {
            "updated": "2016-01-01T00:00:00.000Z", 
            "probe": 301, 
            "created": "2016-01-01T00:00:00.000Z", 
            "queen": 301, 
            "number": 3, 
            "deviceId": "Q301P301C301"
        }
    }, 
    {
        "pk": 302, 
        "model": "ph_model.Grid", 
        "fields": {
            "project": 301, 
            "updated": "2016-01-01T00:00:00.000Z", 
            "municipality": 301, 
            "name": "Grid 302", 
            "created": "2016-01-01T00:00:00.000Z"
        }
    }, 
    {
        "pk": 302, 
        "model": "ph_model.PowerStation", 
        "fields": {
            "updated": "2016-01-01T00:00:00.000Z", 
            "queen": 302, 
            "grid": 302, 
            "name": "10KW", 
            "created": "2016-01-01T00:00:00.000Z"
        }
    }, 
    {
        "pk": 302, 
        "model": "ph_model.BatteryBank", 
        "fields": {
            "updated": "2016-01-01T00:00:00.000Z", 
            "capacity": 10, 
            "created": "2016-01-01T00:00:00.000Z", 
            "stateOfCharge": 0.05, 
            "deviceId": "BB:Grid 302:", 
            "powerstation": 302
        }
    }, 
    {
        "pk": 302, 
        "model": "ph_model.Inverter", 
        "fields": {
            "powerstation": 302, 
            "updated": "2016-01-01T00:00:00.000Z", 
            "type": "PV", 
            "deviceId": "invertor302", 
            "created": "2016-01-01T00:00:00.000Z"
        }
    }, 
    {
        "pk": 302, 
        "model": "ph_model.Queen", 
        "fields": {
            "updated": "2016-01-01T00:00:00.000Z", 
            "created": "2016-01-01T00:00:00.000Z", 
            "number": 1, 
            "longitude": -122.296609, 
            "grid": 302, 
            "deviceId": "Q302", 
            "latitude": 37.863343, 
            "usageInterval": 15
        }
    }, 
    {
        "pk": 302, 
        "model": "ph_model.Probe", 
        "fields": {
            "updated": "2016-01-01T00:00:00.000Z", 
            "queen": 302, 
            "created": "2016-01-01T00:00:00.000Z", 
            "number": 1, 
            "deviceId": "Q302P302"
        }
    }, 
    {
        "pk": 302, 
        "model": "ph_model.Circuit", 
        "fields": {
            "updated": "2016-01-01T00:00:00.000Z", 
            "probe": 302, 
            "created": "2016-01-01T00:00:00.000Z", 
            "queen": 302, 
            "number": 3, 
            "deviceId": "Q302P302C302"
        }
    }, 
    {
        "pk": 301, 
        "model": "auth.User", 
        "fields": {
            "username": "user301", 
            "is_superuser": true, 
            "password": "pbkdf2_sha256$12000$SqGfvTuamcPq$qq64vrn+gSykSMZVq66wMMOqEDMYQWAUGPoaUP8WS9s="
        }
    }, 
    {
        "pk": 302, 
        "model": "auth.User", 
        "fields": {
            "username": "user302", 
            "password": "pbkdf2_sha256$12000$EM5enlZ6RLrW$t0BZlDPUXAzLv5DLYw4BUQ9AGlLgt0+gQgiz4vIukUQ="
        }
    }, 
    {
        "pk": 303, 
        "model": "auth.User", 
        "fields": {
            "username": "user303", 
            "password": "pbkdf2_sha256$12000$WcOgrCFaTMyO$ixB0CVKSg0IMh3WCkOo+zx6VFa4kOcnIpns3S37ceWE="
        }
    }, 
    {
        "pk": 304, 
        "model": "auth.User", 
        "fields": {
            "username": "user304", 
            "password": "pbkdf2_sha256$12000$WJHXpAlQ2Zs8$Z3+aXWlfF5Nhs4YiaDaSOo/tAGGXTEXWHd3YqUdtwAg="
        }
    }, 
    {
        "pk": 301, 
        "model": "ph_model.User", 
        "fields": {
            "phoneNumber": "+10000000002", 
            "updated": "2016-01-01T00:00:00.000Z", 
            "type": "TECHNICIAN", 
            "userInfo": 301, 
            "created": "2016-01-01T00:00:00.000Z"
        }
    }, 
    {
        "pk": 302, 
        "model": "ph_model.User", 
        "fields": {
            "phoneNumber": "+10000000003", 
            "updated": "2016-01-01T00:00:00.000Z", 
            "type": "TECHNICIAN", 
            "userInfo": 302, 
            "created": "2016-01-01T00:00:00.000Z"
        }
    }, 
    {
        "pk": 303, 
        "model": "ph_model.User", 
        "fields": {
            "phoneNumber": "+11000000004", 
            "updated": "2016-01-01T00:00:00.000Z", 
            "type": "SUPERVISOR", 
            "userInfo": 303, 
            "created": "2016-01-01T00:00:00.000Z"
        }
    }, 
    {
        "pk": 304, 
        "model": "ph_model.User", 
        "fields": {
            "phoneNumber": "+10000000004", 
            "updated": "2016-01-01T00:00:00.000Z", 
            "type": "TECHNICIAN", 
            "userInfo": 304, 
            "created": "2016-01-01T00:00:00.000Z"
        }
    }, 
    {
        "pk": 301, 
        "model": "ph_model.Permission", 
        "fields": {
            "itemId": 301, 
            "updated": "2016-01-01T00:00:00.000Z", 
            "itemType": "GRID", 
            "created": "2016-01-01T00:00:00.000Z", 
            "role": 1, 
            "user": 301
        }
    }, 
    {
        "pk": 302, 
        "model": "ph_model.Permission", 
        "fields": {
            "itemId": 302, 
            "updated": "2016-01-01T00:00:00.000Z", 
            "itemType": "GRID", 
            "created": "2016-01-01T00:00:00.000Z", 
            "role": 1, 
            "user": 302
        }
    }, 
    {
        "pk": 303, 
        "model": "ph_model.Permission", 
        "fields": {
            "itemId": 301, 
            "updated": "2016-01-01T00:00:00.000Z", 
            "itemType": "GRID", 
            "created": "2016-01-01T00:00:00.000Z", 
            "role": 2, 
            "user": 303
        }
    }, 
    {
        "pk": 304, 
        "model": "ph_model.Permission", 
        "fields": {
            "itemId": 302, 
            "updated": "2016-01-01T00:00:00.000Z", 
            "itemType": "GRID", 
            "created": "2016-01-01T00:00:00.000Z", 
            "role": 2, 
            "user": 303
        }
    }
]