{
    "$schema": "http://json-schema.org/draft-04/schema#",
    "title": "Circuit usage data",
    "description": "Circuit usage data reported by queen evey 15 minutes.",
    "type": "object",
    "properties": {
        "header": {
            "type": "object",
            "properties": {
                "protocolVersion": {
                    "description": "Protocol version",
                    "type": "integer"
                },
                "collectTime": {
                    "description": "usage collect time in UTC",
                    "type": "string"
                },
                "queen": {
                    "description": "queen serial number",
                    "type": "string"
                },
                "generationInterval": {
                    "description": "Usage interval default 15 minutes",
                    "type": "integer"
                }
            }
        },
        "data": {
            "type": "object",
            "properties": {
                "generation": {
                    "type": "array",
                    "items": [
                        {
                            "type": "object",
                            "properties": {
                                "deviceId": {
                                    "type": "string"
                                },
                                "whGen": {
                                    "type": "integer"
                                },
                                "vaGenMin": {
                                    "type": "integer"
                                },
                                "vacMin": {
                                    "type": "integer"
                                },
                                "vacMax": {
                                    "type": "integer"
                                },
                                "vdcMin": {
                                    "type": "integer"
                                },
                                "whStored": {
                                    "type": "integer"
                                },
                                "vdcBattery": {
                                    "type": "integer"
                                },
                                "socBattery": {
                                    "type": "integer"
                                },
                                "sohBattery": {
                                    "type": "integer"
                                },
                                "tempBattery": {
                                    "type": "integer"
                                }
                            },
                            "required": ["deviceId"]
                        }
                    ]
                }
            }
        }
    },
    "required": ["header", "data"]
}