[
  {
    "pk": 102,
    "model": "ph_model.AccountRule",
    "fields": {
      "minBalance": -10.0,
      "updated": "2016-01-01T00:00:00.000Z",
      "created": "2016-01-01T00:00:00.000Z"
    }
  },
  {
    "pk": 102,
    "model": "ph_model.Account",
    "fields": {
      "accountRule": 102,
      "accountBalance": 100.0,
      "updated": "2016-01-01T00:00:00.000Z",
      "created": "2016-01-01T00:00:00.000Z"
    }
  },
  {
    "pk": 102,
    "model": "ph_model.Circuit",
    "fields": {
      "updated": "2016-01-01T00:00:00.000Z",
      "probe": 1,
      "created": "2016-01-01T00:00:00.000Z",
      "queen": 1,
      "number": 1,
      "deviceId": "CIRCUIT_TESTER_QUEEN:1:102"
    }
  },
  {
    "pk": 100,
    "model": "ph_model.Circuit",
    "fields": {
      "updated": "2016-01-01T00:00:00.000Z",
      "probe": 1,
      "created": "2016-01-01T00:00:00.000Z",
      "queen": 100,
      "number": 2,
      "deviceId": "CIRCUIT_TESTER_QUEEN:100:100"
    }
  },
  {
    "pk": 101,
    "model": "ph_model.Circuit",
    "fields": {
      "updated": "2016-01-01T00:00:00.000Z",
      "probe": 1,
      "created": "2016-01-01T00:00:00.000Z",
      "queen": 101,
      "number": 3,
      "deviceId": "CIRCUIT_TESTER_QUEEN:101:101"
    }
  },
  {
    "pk": 100,
    "model": "ph_model.Queen",
    "fields": {
      "updated": "2016-01-01T00:00:00.000Z",
      "created": "2016-01-01T00:00:00.000Z",
      "number": 1,
      "longitude": 34.92693,
      "grid": 1,
      "deviceId": "CIRCUIT_TESTER_QUEEN_100",
      "latitude": -0.571371
    }
  },
  {
    "pk": 101,
    "model": "ph_model.Queen",
    "fields": {
      "updated": "2016-01-01T00:00:00.000Z",
      "created": "2016-01-01T00:00:00.000Z",
      "number": 2,
      "longitude": 22.92693,
      "grid": 1,
      "deviceId": "CIRCUIT_TESTER_QUEEN_101",
      "latitude": -5.571371
    }
  },
  {
    "pk": 102,
    "model": "ph_model.Customer",
    "fields": {
      "account": 102,
      "created": "2016-01-01T00:00:00.000Z",
      "municipality": 1,
      "updated": "2016-01-01T00:00:00.000Z",
      "phoneNumber": "+111111111111",
      "circuit": 102,
      "tariff": 1,
      "days_no_balance": 1
    }
  },
  {
    "pk": 102,
    "model": "ph_model.Usage",
    "fields": {
      "customer": 102,
      "updated": "2016-01-01T00:00:00.000Z",
      "created": "2016-01-01T00:00:00.000Z",
      "intervalVmin": 1,
      "collectTime": "2014-07-21T00:00:00Z",
      "intervalVAmax": 1,
      "circuit": 102,
      "intervalWh": 1
    }
  },
  {
    "pk": 102,
    "model": "ph_model.CircuitMonitor",
    "fields": {
      "switchEnabled": "DISABLED",
      "commAttempts": 15,
      "created": "2016-01-01T00:00:00.000Z",
      "collectTime": "2014-01-1T1:15:00Z",
      "updated": "2016-01-01T00:00:00.000Z",
      "circuit": 102,
      "disableVaLimit": false,
      "commErrors": 7
    }
  }
]
