[
    {
        "pk": 401, 
        "model": "ph_model.Grid", 
        "fields": {
            "project": 1, 
            "updated": "2016-01-01T00:00:00.000Z", 
            "municipality": 1, 
            "name": "Grid 401", 
            "created": "2016-01-01T00:00:00.000Z"
        }
    }, 
    {
        "pk": 401, 
        "model": "ph_model.PowerStation", 
        "fields": {
            "updated": "2016-01-01T00:00:00.000Z", 
            "queen": 401, 
            "grid": 401, 
            "name": "10KW", 
            "created": "2016-01-01T00:00:00.000Z"
        }
    }, 
    {
        "pk": 401, 
        "model": "ph_model.BatteryBank", 
        "fields": {
            "updated": "2016-01-01T00:00:00.000Z", 
            "capacity": 10, 
            "created": "2016-01-01T00:00:00.000Z", 
            "stateOfCharge": 0.05, 
            "deviceId": "BB:Grid 401", 
            "powerstation": 401
        }
    }, 
    {
        "pk": 401, 
        "model": "ph_model.Inverter", 
        "fields": {
            "powerstation": 401, 
            "updated": "2016-01-01T00:00:00.000Z", 
            "type": "PV", 
            "deviceId": "invertor401", 
            "created": "2016-01-01T00:00:00.000Z"
        }
    }, 
    {
        "pk": 401, 
        "model": "ph_model.Queen", 
        "fields": {
            "updated": "2016-01-01T00:00:00.000Z", 
            "created": "2016-01-01T00:00:00.000Z", 
            "number": 1, 
            "longitude": -122.296609, 
            "grid": 401, 
            "deviceId": "Q401", 
            "latitude": 37.863343, 
            "usageInterval": 15
        }
    }, 
    {
        "pk": 401, 
        "model": "ph_model.Probe", 
        "fields": {
            "updated": "2016-01-01T00:00:00.000Z", 
            "queen": 401, 
            "number": 1, 
            "deviceId": "Q401P401", 
            "created": "2016-01-01T00:00:00.000Z"
        }
    }, 
    {
        "pk": 401, 
        "model": "ph_model.Circuit", 
        "fields": {
            "updated": "2016-01-01T00:00:00.000Z", 
            "probe": 401, 
            "created": "2016-01-01T00:00:00.000Z", 
            "queen": 401, 
            "number": 1, 
            "deviceId": "Q401P401C401"
        }
    }
]