{
    "records": [
        {
            "status": "complete",
            "version": 3,
            "id": "33f7f7c1-cd73-4904-ab0f-357d9c7a0569",
            "created_at": "2014-11-25T15:56:45Z",
            "updated_at": "2015-03-05T19:44:58Z",
            "client_created_at": "2014-11-25T14:51:44Z",
            "client_updated_at": "2015-02-10T08:54:38Z",
            "created_by": "VA phone Agent 7",
            "created_by_id": "f400ae2e-6b87-485d-8a20-9af58c70cb9a",
            "updated_by": "Evans Magembe",
            "updated_by_id": "7fa3c1a4-9c2e-4a8e-ab7c-3155347e72f9",
            "form_id": "7debd65a-be84-439c-b61c-1c4726c32aaf",
            "project_id": "a63440de-e3e3-4b3c-8a97-5f7f19e3abae",
            "assigned_to": "VA phone Agent 7",
            "assigned_to_id": "f400ae2e-6b87-485d-8a20-9af58c70cb9a",
            "form_values": {
                "4850": "yes",
                "7057": "200",
                "7279": "Able to pay \n",
                "7890": "17:39",
                "bb58": "Rwoma",
                "0ce0": {
                    "choice_values": [
                        "15/="
                    ],
                    "other_values": []
                },
                "ba39": "2014-11-25",
                "8a74": "yes",
                "95a3": "5000",
                "a7a9": {
                    "choice_values": [
                        "Own business"
                    ],
                    "other_values": []
                },
                "3f56": "yes",
                "57e6": "13817527",
                "7d93": "4",
                "a39b": "2000",
                "6c0d": "Samwel",
                "81b4": {
                    "choice_values": [
                        "High School"
                    ],
                    "other_values": []
                },
                "1e2f": {
                    "choice_values": [
                        "Up to 4 lights",
                        "Phone charging",
                        "Listening to radio"
                    ],
                    "other_values": []
                },
                "418c": {
                    "choice_values": [
                        "Kiosk"
                    ],
                    "other_values": []
                },
                "0628": "0",
                "d240": {
                    "choice_values": [
                        "Residential basic (only lights, radio, phone)"
                    ],
                    "other_values": []
                },
                "a851": "8",
                "d8a2": {
                    "choice_values": [
                        "Evening",
                        "Night"
                    ],
                    "other_values": []
                },
                "1f22": "yes",
                "7ab1": "0710816548",
                "0b8b": {
                    "choice_values": [
                        "Kerosene"
                    ],
                    "other_values": []
                },
                "97db": [
                    {
                        "photo_id": "87f6a8f0-9f2c-40c8-987d-81538ee8140a"
                    }
                ],
                "9d35": "5",
                "b483": {
                    "choice_values": [
                        "Baranen"
                    ],
                    "other_values": []
                },
                "281c": {
                    "choice_values": [
                        "Self-employed",
                        "Kiosk"
                    ],
                    "other_values": []
                },
                "bb23": [
                    {
                        "photo_id": "90c87b83-0751-440d-9037-3db6d62e4e9c"
                    }
                ],
                "5db6": "200",
                "a354": {
                    "choice_values": [
                        "9 PM"
                    ],
                    "other_values": []
                },
                "1cea": "Rwoma",
                "281a": "250",
                "399b": "1",
                "337f": "",
                "e07d": {
                    "timestamp": "2014-11-25T14:50:07Z",
                    "signature_id": "1551232e-c9fc-425f-9062-7a4f505b50dd"
                },
                "f642": "yes",
                "d56f": "40",
                "501a": "5",
                "32a7": "yes",
                "16d6": {
                    "choice_values": [
                        "Male"
                    ],
                    "other_values": []
                },
                "ea69": "Samwel",
                "da2d": "yes"
            },
            "latitude": -0.901507900253585,
            "longitude": 34.8477319255471,
            "altitude": 0,
            "speed": null,
            "course": 0,
            "horizontal_accuracy": 0,
            "vertical_accuracy": null
        }
    ],
    "current_page": 1,
    "total_pages": 1,
    "total_count": 1,
    "per_page": 20000
}