[
    {
        "image_large": null, 
        "created_at": "2016-04-29T08:06:40Z", 
        "record_count": 58, 
        "name": "Internet survey", 
        "title_field_keys": [
            "f42a"
        ], 
        "script": null, 
        "geometry_types": [
            "Point"
        ], 
        "geometry_required": false, 
        "description": "This is intended to survey Nyamondo customers to establish whether the idea of connecting village customers to internet is viable commercially.", 
        "image_small": null, 
        "updated_at": "2016-05-11T08:15:20Z", 
        "bounding_box": [
            -1.96698465684725, 
            34.6950522065163, 
            -0.7494227, 
            37.3442237824202
        ], 
        "elements": [
            {
                "default_value": null, 
                "min_length": null, 
                "data_name": "customer_name", 
                "description": null, 
                "visible_conditions": null, 
                "pattern": null, 
                "required": false, 
                "numeric": false, 
                "label": "Customer name", 
                "disabled": false, 
                "visible_conditions_type": null, 
                "pattern_description": null, 
                "required_conditions_type": null, 
                "key": "c414", 
                "required_conditions": null, 
                "max_length": null, 
                "hidden": false, 
                "type": "TextField", 
                "default_previous_value": false
            }, 
            {
                "default_value": null, 
                "min_length": null, 
                "data_name": "section", 
                "description": null, 
                "visible_conditions": null, 
                "pattern": null, 
                "required": false, 
                "numeric": false, 
                "label": "Customer name", 
                "disabled": false, 
                "visible_conditions_type": null, 
                "pattern_description": null, 
                "required_conditions_type": null, 
                "key": "qwer", 
                "required_conditions": null, 
                "max_length": null, 
                "hidden": false, 
                "type": "TextField", 
                "default_previous_value": false,
                "elements": [
                    {
                        "description": null,
                        "data_name": "sub_section_question",
                        "name": "sub section question",
                        "key": "asdf",
                        "label": "ssq",
                        "type": "TextField"
                    }
                ]
            }, 
            {
                "default_value": null, 
                "min_length": null, 
                "data_name": "name_of_the_village", 
                "description": null, 
                "visible_conditions": null, 
                "pattern": null, 
                "required": true, 
                "numeric": false, 
                "label": "Name of the village", 
                "disabled": false, 
                "visible_conditions_type": null, 
                "pattern_description": null, 
                "required_conditions_type": null, 
                "key": "f42a", 
                "required_conditions": null, 
                "max_length": null, 
                "hidden": false, 
                "type": "TextField", 
                "default_previous_value": false
            }, 
            {
                "default_value": null, 
                "default_previous_value": false, 
                "data_name": "date", 
                "description": null, 
                "visible_conditions": null, 
                "required": false, 
                "label": "Date", 
                "disabled": false, 
                "visible_conditions_type": null, 
                "required_conditions_type": null, 
                "key": "9e74", 
                "required_conditions": null, 
                "hidden": false, 
                "type": "DateTimeField"
            }, 
            {
                "default_value": null, 
                "default_previous_value": false, 
                "data_name": "time", 
                "description": null, 
                "visible_conditions": null, 
                "required": false, 
                "label": "Time", 
                "disabled": false, 
                "visible_conditions_type": null, 
                "required_conditions_type": null, 
                "key": "833b", 
                "required_conditions": null, 
                "hidden": false, 
                "type": "TimeField"
            }, 
            {
                "default_value": null, 
                "min_length": null, 
                "data_name": "customer_queen_and_circuit_number", 
                "description": null, 
                "visible_conditions": null, 
                "pattern": null, 
                "required": false, 
                "numeric": false, 
                "label": "Customer queen and circuit number", 
                "disabled": false, 
                "visible_conditions_type": null, 
                "pattern_description": null, 
                "required_conditions_type": null, 
                "key": "4e0b", 
                "required_conditions": null, 
                "max_length": null, 
                "hidden": false, 
                "type": "TextField", 
                "default_previous_value": false
            }, 
            {
                "default_value": null, 
                "default_previous_value": false, 
                "data_name": "do_you_know_what_the_internet_is", 
                "neutral_enabled": false, 
                "description": null, 
                "visible_conditions": null, 
                "positive": {
                    "value": "yes", 
                    "label": "Yes"
                }, 
                "required": false, 
                "negative": {
                    "value": "no", 
                    "label": "No"
                }, 
                "label": "Do you know what the internet is?", 
                "disabled": false, 
                "visible_conditions_type": null, 
                "neutral": {
                    "value": "n/a", 
                    "label": "N/A"
                }, 
                "required_conditions_type": null, 
                "key": "204e", 
                "required_conditions": null, 
                "hidden": false, 
                "type": "YesNoField"
            }, 
            {
                "default_value": null, 
                "min_length": null, 
                "data_name": "when_was_the_last_time_you_used_internet", 
                "multiple": true, 
                "description": null, 
                "visible_conditions": null, 
                "required": true, 
                "allow_other": true, 
                "label": "When was the last time you used internet?", 
                "disabled": false, 
                "visible_conditions_type": null, 
                "required_conditions_type": null, 
                "key": "1223", 
                "required_conditions": null, 
                "max_length": null, 
                "hidden": false, 
                "choices": [
                    {
                        "value": "a.Never", 
                        "label": "a.Never"
                    }, 
                    {
                        "value": "b. Within the last month", 
                        "label": "b. Within the last month"
                    }, 
                    {
                        "value": "c. Within the last 12 months", 
                        "label": "c. Within the last 12 months"
                    }
                ], 
                "type": "ChoiceField", 
                "default_previous_value": false
            }, 
            {
                "default_value": null, 
                "min_length": null, 
                "data_name": "for_what_purpose_did_you_most_recently_use_internet", 
                "description": null, 
                "visible_conditions": null, 
                "pattern": null, 
                "required": false, 
                "numeric": false, 
                "label": "For what purpose did you most recently use internet?", 
                "disabled": false, 
                "visible_conditions_type": null, 
                "pattern_description": null, 
                "required_conditions_type": null, 
                "key": "f42f", 
                "required_conditions": null, 
                "max_length": null, 
                "hidden": false, 
                "type": "TextField", 
                "default_previous_value": false
            }, 
            {
                "default_value": null, 
                "min_length": null, 
                "data_name": "how_far_is_the_nearest_internet_cafe", 
                "multiple": true, 
                "description": null, 
                "visible_conditions": null, 
                "required": false, 
                "allow_other": true, 
                "label": "How far is the nearest internet cafe?", 
                "disabled": false, 
                "visible_conditions_type": null, 
                "required_conditions_type": null, 
                "key": "30fe", 
                "required_conditions": null, 
                "max_length": null, 
                "hidden": false, 
                "choices": [
                    {
                        "value": "a. I don't know", 
                        "label": "a. I don't know"
                    }, 
                    {
                        "value": "b.< 1 km", 
                        "label": "b.< 1 km"
                    }, 
                    {
                        "value": "c. < 5 km", 
                        "label": "c. < 5 km"
                    }, 
                    {
                        "value": "d. >5 km", 
                        "label": "d. >5 km"
                    }
                ], 
                "type": "ChoiceField", 
                "default_previous_value": false
            }, 
            {
                "default_value": null, 
                "min_length": null, 
                "data_name": "if_you_had_access_to_high_speed_wireless_internet_access_in_your_home_can_you_explain_how_you_would_like_to_use_it", 
                "description": null, 
                "visible_conditions": null, 
                "pattern": null, 
                "required": false, 
                "numeric": false, 
                "label": "If you had access to high-speed wireless internet access in your home, can you explain how you would like to use it?", 
                "disabled": false, 
                "visible_conditions_type": null, 
                "pattern_description": null, 
                "required_conditions_type": null, 
                "key": "5b71", 
                "required_conditions": null, 
                "max_length": null, 
                "hidden": false, 
                "type": "TextField", 
                "default_previous_value": false
            }, 
            {
                "default_value": null, 
                "min_length": null, 
                "data_name": "from_the_following_uses_of_internet_access_choose_three_which_would_be_most_useful_to_you", 
                "multiple": true, 
                "description": null, 
                "visible_conditions": null, 
                "required": false, 
                "allow_other": true, 
                "label": "From the following uses of internet access, choose three which would be most useful to you", 
                "disabled": false, 
                "visible_conditions_type": null, 
                "required_conditions_type": null, 
                "key": "90a3", 
                "required_conditions": null, 
                "max_length": null, 
                "hidden": false, 
                "choices": [
                    {
                        "value": "a. E-mail communication", 
                        "label": "a. E-mail communication"
                    }, 
                    {
                        "value": "b. Streaming movies and videos (e.g You tube)", 
                        "label": "b. Streaming movies and videos (e.g You tube)"
                    }, 
                    {
                        "value": "c. Social networking (e.g face book)", 
                        "label": "c. Social networking (e.g face book)"
                    }, 
                    {
                        "value": "d. Learning and educational content for your children", 
                        "label": "d. Learning and educational content for your children"
                    }, 
                    {
                        "value": "e. Skills development for your profession( e.g. learning new farming practices)", 
                        "label": "e. Skills development for your profession( e.g. learning new farming practices)"
                    }, 
                    {
                        "value": "f. Online banking", 
                        "label": "f. Online banking"
                    }, 
                    {
                        "value": "g. To visit/ talk to a doctor over the internet", 
                        "label": "g. To visit/ talk to a doctor over the internet"
                    }, 
                    {
                        "value": "h. Other two", 
                        "label": "h. Other two"
                    }
                ], 
                "type": "ChoiceField", 
                "default_previous_value": false
            }, 
            {
                "default_value": null, 
                "min_length": null, 
                "data_name": "does_anyone_in_your_household_own_any_of_the_following_devicescheck_all_that_apply", 
                "multiple": true, 
                "description": null, 
                "visible_conditions": null, 
                "required": false, 
                "allow_other": true, 
                "label": "Does anyone in your household own any of the following devices?(Check all that apply)", 
                "disabled": false, 
                "visible_conditions_type": null, 
                "required_conditions_type": null, 
                "key": "9c68", 
                "required_conditions": null, 
                "max_length": null, 
                "hidden": false, 
                "choices": [
                    {
                        "value": "a. Computer.", 
                        "label": "a. Computer."
                    }, 
                    {
                        "value": "b. Tablet.", 
                        "label": "b. Tablet."
                    }, 
                    {
                        "value": "c. Smartphone.", 
                        "label": "c. Smartphone."
                    }
                ], 
                "type": "ChoiceField", 
                "default_previous_value": false
            }, 
            {
                "default_value": null, 
                "min_length": null, 
                "data_name": "if_yes_to_question_7_who_uses_the_device_select_all_that_apply", 
                "multiple": true, 
                "description": null, 
                "visible_conditions": null, 
                "required": false, 
                "allow_other": true, 
                "label": "If \u2018Yes\u2019 to question 7, who uses the device? [select all that apply]", 
                "disabled": false, 
                "visible_conditions_type": null, 
                "required_conditions_type": null, 
                "key": "c2e6", 
                "required_conditions": null, 
                "max_length": null, 
                "hidden": false, 
                "choices": [
                    {
                        "value": "a. Mother.", 
                        "label": "a. Mother."
                    }, 
                    {
                        "value": "b. Father.", 
                        "label": "b. Father."
                    }, 
                    {
                        "value": "c. Child (university student).", 
                        "label": "c. Child (university student)."
                    }, 
                    {
                        "value": "d. Child (primary school student).", 
                        "label": "d. Child (primary school student)."
                    }
                ], 
                "type": "ChoiceField", 
                "default_previous_value": false
            }, 
            {
                "default_value": null, 
                "min_length": null, 
                "data_name": "if_yes_to_question_7_for_what_purposes_do_they_use_it_select_all_that_apply", 
                "multiple": true, 
                "description": null, 
                "visible_conditions": null, 
                "required": false, 
                "allow_other": true, 
                "label": "If \u2018Yes\u2019 to question 7, for what purpose(s) do they use it? [select all that apply]", 
                "disabled": false, 
                "visible_conditions_type": null, 
                "required_conditions_type": null, 
                "key": "d66d", 
                "required_conditions": null, 
                "max_length": null, 
                "hidden": false, 
                "choices": [
                    {
                        "value": "a. Email communications.", 
                        "label": "a. Email communications."
                    }, 
                    {
                        "value": "b. Streaming movies and videos (e.g. Youtube).", 
                        "label": "b. Streaming movies and videos (e.g. Youtube)."
                    }, 
                    {
                        "value": "c. Social networking (e.g. Facebook).", 
                        "label": "c. Social networking (e.g. Facebook)."
                    }, 
                    {
                        "value": "d. Learning and educational content for your children.", 
                        "label": "d. Learning and educational content for your children."
                    }, 
                    {
                        "value": "e. Career skills development (e.g. learning new farming practices).", 
                        "label": "e. Career skills development (e.g. learning new farming practices)."
                    }, 
                    {
                        "value": "f. Online banking.", 
                        "label": "f. Online banking."
                    }, 
                    {
                        "value": "g. Other.", 
                        "label": "g. Other."
                    }, 
                    {
                        "value": "h. Other2.", 
                        "label": "h. Other2."
                    }
                ], 
                "type": "ChoiceField", 
                "default_previous_value": false
            }, 
            {
                "default_value": null, 
                "min_length": null, 
                "data_name": "if_yes_to_question_7_how_much_does_the_household_currently_spend_on_data_each_month", 
                "multiple": true, 
                "description": null, 
                "visible_conditions": null, 
                "required": false, 
                "allow_other": true, 
                "label": "If \u2018Yes\u2019 to question 7, how much does the household currently spend on data each month?", 
                "disabled": false, 
                "visible_conditions_type": null, 
                "required_conditions_type": null, 
                "key": "1410", 
                "required_conditions": null, 
                "max_length": null, 
                "hidden": false, 
                "choices": [
                    {
                        "value": "a. 0 KES", 
                        "label": "a. 0 KES"
                    }, 
                    {
                        "value": "b. 1 - 100 KES", 
                        "label": "b. 1 - 100 KES"
                    }, 
                    {
                        "value": "c. 100 - 250 KES", 
                        "label": "c. 100 - 250 KES"
                    }, 
                    {
                        "value": "d. 250 - 500 KES", 
                        "label": "d. 250 - 500 KES"
                    }, 
                    {
                        "value": "e. >500 KES", 
                        "label": "e. >500 KES"
                    }
                ], 
                "type": "ChoiceField", 
                "default_previous_value": false
            }, 
            {
                "default_value": null, 
                "min_length": null, 
                "data_name": "in_a_given_month_how_much_money_could_your_family_afford_to_spend_on_a_phone_internet_package", 
                "multiple": true, 
                "description": null, 
                "visible_conditions": null, 
                "required": false, 
                "allow_other": true, 
                "label": "In a given month, how much money could your family afford to spend on a phone + internet package?", 
                "disabled": false, 
                "visible_conditions_type": null, 
                "required_conditions_type": null, 
                "key": "8502", 
                "required_conditions": null, 
                "max_length": null, 
                "hidden": false, 
                "choices": [
                    {
                        "value": "a. 0 KES", 
                        "label": "a. 0 KES"
                    }, 
                    {
                        "value": "b. 1 - 100 KES", 
                        "label": "b. 1 - 100 KES"
                    }, 
                    {
                        "value": "c. 100 - 250 KES", 
                        "label": "c. 100 - 250 KES"
                    }, 
                    {
                        "value": "d. 250 - 500 KES", 
                        "label": "d. 250 - 500 KES"
                    }, 
                    {
                        "value": "e. >500 KES", 
                        "label": "e. >500 KES"
                    }
                ], 
                "type": "ChoiceField", 
                "default_previous_value": false
            }, 
            {
                "default_value": null, 
                "min_length": null, 
                "data_name": "how_much_do_you_and_your_spouse_combined_spend_on_airtime_voice_sms_for_your_mobile_phone_each_month_", 
                "multiple": true, 
                "description": null, 
                "visible_conditions": null, 
                "required": false, 
                "allow_other": true, 
                "label": "How much do you and your spouse combined spend on airtime (voice & SMS) for your mobile phone each month? ", 
                "disabled": false, 
                "visible_conditions_type": null, 
                "required_conditions_type": null, 
                "key": "a37c", 
                "required_conditions": null, 
                "max_length": null, 
                "hidden": false, 
                "choices": [
                    {
                        "value": "a. 0 KES", 
                        "label": "a. 0 KES"
                    }, 
                    {
                        "value": "b. 1 - 100 KES", 
                        "label": "b. 1 - 100 KES"
                    }, 
                    {
                        "value": "c. 100 - 250 KES", 
                        "label": "c. 100 - 250 KES"
                    }, 
                    {
                        "value": "d. 250 - 500 KES", 
                        "label": "d. 250 - 500 KES"
                    }, 
                    {
                        "value": "e. >500 KES", 
                        "label": "e. >500 KES"
                    }
                ], 
                "type": "ChoiceField", 
                "default_previous_value": false
            }, 
            {
                "default_value": null, 
                "default_previous_value": false, 
                "data_name": "in_what_ways_do_you_think_internet_access_could_enable_you_to_increase_your_monthly_income", 
                "multiple": false, 
                "description": null, 
                "visible_conditions": null, 
                "required": false, 
                "allow_other": false, 
                "label": "In what ways do you think internet access could enable you to increase your monthly income?", 
                "disabled": false, 
                "visible_conditions_type": null, 
                "required_conditions_type": null, 
                "key": "5420", 
                "required_conditions": null, 
                "hidden": false, 
                "choices": [
                    {
                        "value": "a. None", 
                        "label": "a. None"
                    }, 
                    {
                        "value": "b. Other", 
                        "label": "b. Other"
                    }
                ], 
                "type": "ChoiceField"
            }, 
            {
                "default_value": null, 
                "min_length": null, 
                "data_name": "in_your_opinion_how_important_is_the_internet_for_improving_your_childs_educational_outcomes", 
                "multiple": true, 
                "description": null, 
                "visible_conditions": null, 
                "required": true, 
                "allow_other": true, 
                "label": "In your opinion, how important is the internet for improving your child\u2019s educational outcomes?", 
                "disabled": false, 
                "visible_conditions_type": null, 
                "required_conditions_type": null, 
                "key": "836e", 
                "required_conditions": null, 
                "max_length": null, 
                "hidden": false, 
                "choices": [
                    {
                        "value": "a. I don\u2019t have a child / my children are already adults.", 
                        "label": "a. I don\u2019t have a child / my children are already adults."
                    }, 
                    {
                        "value": "b. Not important.", 
                        "label": "b. Not important."
                    }, 
                    {
                        "value": "c. Somewhat important.", 
                        "label": "c. Somewhat important."
                    }, 
                    {
                        "value": "d. Very important.", 
                        "label": "d. Very important."
                    }
                ], 
                "type": "ChoiceField", 
                "default_previous_value": false
            }, 
            {
                "default_value": null, 
                "min_length": null, 
                "data_name": "if_powerhive_offered_a_package_for_sale_that_included_high_speed_internet_access_and_a_smartphone_at_a_fixed_monthly_rate_would_you_buy_the_package", 
                "multiple": true, 
                "description": null, 
                "visible_conditions": null, 
                "required": true, 
                "allow_other": true, 
                "label": "If Powerhive offered a package for sale that included high-speed internet access and a smartphone at a fixed monthly rate, would you buy the package?", 
                "disabled": false, 
                "visible_conditions_type": null, 
                "required_conditions_type": null, 
                "key": "3b86", 
                "required_conditions": null, 
                "max_length": null, 
                "hidden": false, 
                "choices": [
                    {
                        "value": "a. Definitely.", 
                        "label": "a. Definitely."
                    }, 
                    {
                        "value": "b. Probably.", 
                        "label": "b. Probably."
                    }, 
                    {
                        "value": "c. Probably not.", 
                        "label": "c. Probably not."
                    }, 
                    {
                        "value": "d. Definitely not.", 
                        "label": "d. Definitely not."
                    }
                ], 
                "type": "ChoiceField", 
                "default_previous_value": false
            }, 
            {
                "default_value": null, 
                "default_previous_value": false, 
                "data_name": "if_powerhive_offered_pay_as_you_go_internet_service_would_you_buy_it", 
                "multiple": false, 
                "description": "With out a smartphone package.", 
                "visible_conditions": null, 
                "required": false, 
                "allow_other": false, 
                "label": "If Powerhive offered pay-as-you-go internet service, would you buy it?", 
                "disabled": false, 
                "visible_conditions_type": null, 
                "required_conditions_type": null, 
                "key": "fc70", 
                "required_conditions": null, 
                "hidden": false, 
                "choices": [
                    {
                        "value": "Definitely", 
                        "label": "Definitely"
                    }, 
                    {
                        "value": "Probably", 
                        "label": "Probably"
                    }, 
                    {
                        "value": "Probably not", 
                        "label": "Probably not"
                    }, 
                    {
                        "value": "Definitely not", 
                        "label": "Definitely not"
                    }
                ], 
                "type": "ChoiceField"
            }, 
            {
                "default_value": null, 
                "default_previous_value": false, 
                "data_name": "which_of_the_following_payment_plans_would_you_prefer", 
                "multiple": false, 
                "description": null, 
                "visible_conditions": null, 
                "required": true, 
                "allow_other": true, 
                "label": "Which of the following payment plans would you prefer?", 
                "disabled": false, 
                "visible_conditions_type": null, 
                "required_conditions_type": null, 
                "key": "b30e", 
                "required_conditions": null, 
                "hidden": false, 
                "choices": [
                    {
                        "value": "a. Fixed monthly rate.", 
                        "label": "a. Fixed monthly rate."
                    }, 
                    {
                        "value": "b. Pay-as-you-go data plan.", 
                        "label": "b. Pay-as-you-go data plan."
                    }
                ], 
                "type": "ChoiceField"
            }
        ], 
        "record_title_key": "f42a", 
        "image_thumbnail": null, 
        "image": null, 
        "auto_assign": false, 
        "hidden_on_dashboard": false, 
        "id": "047e2401-8221-4ef4-819f-902d332dbd08", 
        "status_field": {
            "default_value": "", 
            "read_only": false, 
            "required": false, 
            "description": "", 
            "default_previous_value": false, 
            "data_name": "status", 
            "enabled": false, 
            "label": "Status", 
            "disabled": false, 
            "key": "@status", 
            "hidden": false, 
            "choices": [], 
            "type": "StatusField"
        }
    }
]

